…
# split into words 
by_chapter_word <- by_chapter %>% 
  unnest_tokens(word,text)

# find document-word counts
word_counts <- by_chapter_word %>% 
  anti_join(stop_words) %>% 
  count(document,word,sort=T) %>% 
  ungroup()

word_counts
```

```{r}
## # A tibble: 104,721 x 3
##    document                 word        n
##    <chr>                    <chr>   <int>
##  1 Great Expectations_57    joe        88
##  2 Great Expectations_7     joe        70
##  3 Great Expectations_17    biddy      63
##  4 Great Expectations_27    joe        58
##  5 Great Expectations_38    estella    58
##  6 Great Expectations_2     joe        56
##  7 Great Expectations_23    pocket     53
##  8 Great Expectations_15    joe        50
##  9 Great Expectations_18    joe        50
## 10 The War of the Worlds_16 brother    50
## # ... with 104,711 more rows
```
…
```{r}
## A LDA_VEM topic model with 4 topics.
```

Muchas we did on the Associated Press data, we can examine per-topic-per-word probabilities. 
```{r 6.2.1-3}
chapter_topics <- tidy(chapters_lda,matrix="beta")
chapter_topics
```

```{r}
## # A tibble: 72,860 x 3
##    topic term        beta
##    <int> <chr>      <dbl>
##  1     1 joe     5.83e-17
##  2     2 joe     3.19e-57
##  3     3 joe     4.16e-24
##  4     4 joe     1.45e- 2
##  5     1 biddy   7.85e-27
##  6     2 biddy   4.67e-69
##  7     3 biddy   2.26e-46
##  8     4 biddy   4.77e- 3
##  9     1 estella 3.83e- 6
## 10     2 estella 5.32e-65
## # ... with 72,850 more rows
```
…
These topics are pretty clearly associated with the four books! There’s no question that the topic of “captain”, “nautilus”, “sea”, and “nemo” belongs to Twenty Thousand Leagues Under the Sea, and that “jane”, “darcy”, and “elizabeth” belongs to Pride and Prejudice. We see “pip” and “joe” from Great Expectations and “martians”, “black”, and “night” from The War of the Worlds. We also notice that, in line with LDA being a “fuzzy clustering” method, there can be words in common between multiple topics, such as “miss” in topics 1 and 4, and “time” in topics 3 and 4.

### 6.2.2 Pre-document classification
Each document in this analysis represented a single chapter. Thus, we may want to know which topics are associated with each document. Can we put the chapters back together in the correct books? We can find this by examining the per-document-per-topic probabilities,$\gamma$.
```{r}
chapters_gamma <- tidy(chapters_lda,matrix="gamma")
chapters_gamma
```

```{r}
## # A tibble: 772 x 3
##    document                 topic     gamma
##    <chr>                    <int>     <dbl>
##  1 Great Expectations_57        1 0.0000135
##  2 Great Expectations_7         1 0.0000147
##  3 Great Expectations_17        1 0.0000212
##  4 Great Expectations_27        1 0.0000192
##  5 Great Expectations_38        1 0.354    
##  6 Great Expectations_2         1 0.0000172
##  7 Great Expectations_23        1 0.551    
##  8 Great Expectations_15        1 0.0168   
##  9 Great Expectations_18        1 0.0000127
## 10 The War of the Worlds_16     1 0.0000108
## # ... with 762 more rows
```

Each of these values is an estimated proportion of words from that document that are generated from that topic. For example, the model estimates that each word in the Great Expectations_57 document has only a 0.00135% probability of coming from topic 1 (Pride and Prejudice).

Now that we have these topic probabilities, we can see how well our unsupervised learning did at distinguishing the four books. We’d expect that chapters within a book would be found to be mostly (or entirely), generated from the corresponding topic.

First we re-separate the document name into title and chapter, after which we can visualize the per-document-per-topic probability for each (Figure 6.5).
```{r}
chapters_gamma <- chapters_gamma %>% 
  separate(document,c("title","chapter"),sep="_",convert=TRUE)
chapters_gamma
```

```{r}
## # A tibble: 772 x 4
##    title                 chapter topic     gamma
##    <chr>                   <int> <int>     <dbl>
##  1 Great Expectations         57     1 0.0000135
##  2 Great Expectations          7     1 0.0000147
##  3 Great Expectations         17     1 0.0000212
##  4 Great Expectations         27     1 0.0000192
##  5 Great Expectations         38     1 0.354    
##  6 Great Expectations          2     1 0.0000172
##  7 Great Expectations         23     1 0.551    
##  8 Great Expectations         15     1 0.0168   
##  9 Great Expectations         18     1 0.0000127
## 10 The War of the Worlds      16     1 0.0000108
## # ... with 762 more rows
```
…
We notice that almost all of the chapters from Pride and Prejudice, War of the Worlds, and Twenty Thousand Leagues Under the Sea were uniquely identified as a single topic each.

It does look like some chapters from Great Expectations (which should be topic 4) were somewhat associated with other topics. Are there any cases where the topic most associated with a chapter belonged to another book? First we’d find the topic that was most associated with each chapter using `top_n()`, which is effectively the “classification” of that chapter.
```{r}
chapter_classifications <- chapters_gamma %>%
  group_by(title, chapter) %>%
  top_n(1, gamma) %>%
  ungroup()

chapter_classifications
## # A tibble: 193 x 4
##    title               chapter topic gamma
##    <chr>                 <int> <int> <dbl>
##  1 Great Expectations       23     1 0.551
##  2 Pride and Prejudice      43     1 1.000
##  3 Pride and Prejudice      18     1 1.000
##  4 Pride and Prejudice      45     1 1.000
##  5 Pride and Prejudice      16     1 1.000
##  6 Pride and Prejudice      29     1 1.000
##  7 Pride and Prejudice      10     1 1.000
##  8 Pride and Prejudice       8     1 1.000
##  9 Pride and Prejudice      56     1 1.000
## 10 Pride and Prejudice      47     1 1.000
## # ... with 183 more rows
…
We see that only two chapters from Great Expectations were missclassified, as LDA described one as coming from the "Pride and PRejudice" topic (topic1) and one from The War of the Worlds (topic3). That's not bard for unsupervised clustering!

### 6.2.3 By word assignments: `augment`
One step of the LDA algorithm is assigning each word in each document to a topic. The more words in a document are assigned to that topic, generally, the more weight (`gamma`) will go on that document-topic classification.

We may want to take the original document-word pairs and find which words in each document were assigned to which topic. This is the job of the `augment()` function, which also originated in the broom package as a way of tidying model output. While `tidy()` retrieves the statistical components of the model, `augment()` uses a model to add information to each observation in the original data.
```{r}
assignments <- augument(chapters_lda,data=chapters_dtm)
assignments
## # A tibble: 104,721 x 4
##    document              term  count .topic
##    <chr>                 <chr> <dbl>  <dbl>
##  1 Great Expectations_57 joe     88.     4.
##  2 Great Expectations_7  joe     70.     4.
##  3 Great Expectations_17 joe      5.     4.
##  4 Great Expectations_27 joe     58.     4.
##  5 Great Expectations_2  joe     56.     4.
##  6 Great Expectations_23 joe      1.     4.
##  7 Great Expectations_15 joe     50.     4.
##  8 Great Expectations_18 joe     50.     4.
##  9 Great Expectations_9  joe     44.     4.
## 10 Great Expectations_13 joe     40.     4.
## # ... with 104,711 more rows
```

This returns a tidy data frame of book-term counts, but adds an extra column: `.topic`, with the topic each term was assigned to within each document. (Extra columns added by `augment` always start with `.`, to prevent overwriting existing columns). We can combine this `assignments` table with the consensus book titles to find which words were incorrectly classified.
```{r }
assignments <- assignments %>% 
  separate(document,c("title","chapter"),sep="_",convert=TRUE) %>% 
  inner_join(book_topics,by=c(".topic"="topic"))

assignments
## # A tibble: 104,721 x 6
##    title              chapter term  count .topic consensus         
##    <chr>                <int> <chr> <dbl>  <dbl> <chr>             
##  1 Great Expectations      57 joe     88.     4. Great Expectations
##  2 Great Expectations       7 joe     70.     4. Great Expectations
##  3 Great Expectations      17 joe      5.     4. Great Expectations
##  4 Great Expectations      27 joe     58.     4. Great Expectations
##  5 Great Expectations       2 joe     56.     4. Great Expectations
##  6 Great Expectations      23 joe      1.     4. Great Expectations
##  7 Great Expectations      15 joe     50.     4. Great Expectations
##  8 Great Expectations      18 joe     50.     4. Great Expectations
##  9 Great Expectations       9 joe     44.     4. Great Expectations
## 10 Great Expectations      13 joe     40.     4. Great Expectations
## # ... with 104,711 more rows
```
…
We notice that almost all the words for Pride and Prejudice, Twenty Thousand Leagues Under the Sea, and War of the Worlds were correctly assigned, while Great Expectations had a fair number of misassigned words (which, as we saw above, led to two chapters getting misclassified).

What were the most commonly mistaken words?
```{r}
wrong_words <- assignments %>% 
  filter(title!=consensus)

wrong_words
## # A tibble: 4,535 x 6
##    title                                 chapter term     count .topic
##    <chr>                                   <int> <chr>    <dbl>  <dbl>
##  1 Great Expectations                         38 brother     2.     1.
##  2 Great Expectations                         22 brother     4.     1.
##  3 Great Expectations                         23 miss        2.     1.
##  4 Great Expectations                         22 miss       23.     1.
##  5 Twenty Thousand Leagues under the Sea       8 miss        1.     1.
##  6 Great Expectations                         31 miss        1.     1.
##  7 Great Expectations                          5 sergeant   37.     1.
##  8 Great Expectations                         46 captain     1.     2.
##  9 Great Expectations                         32 captain     1.     2.
## 10 The War of the Worlds                      17 captain     5.     2.
##    consensus                            
##    <chr>                                
##  1 Pride and Prejudice                  
##  2 Pride and Prejudice                  
##  3 Pride and Prejudice                  
##  4 Pride and Prejudice                  
##  5 Pride and Prejudice                  
##  6 Pride and Prejudice                  
##  7 Pride and Prejudice                  
##  8 Twenty Thousand Leagues under the Sea
##  9 Twenty Thousand Leagues under the Sea
## 10 Twenty Thousand Leagues under the Sea
## # ... with 4,525 more rows
```

```{r}
wrong_words %>% 
  count(title,consensus,term,wt=count) %>% 
  ungroup() %>% 
  arrange(desc(n))

## # A tibble: 3,500 x 4
##    title              consensus             term         n
##    <chr>              <chr>                 <chr>    <dbl>
##  1 Great Expectations Pride and Prejudice   love       44.
##  2 Great Expectations Pride and Prejudice   sergeant   37.
##  3 Great Expectations Pride and Prejudice   lady       32.
##  4 Great Expectations Pride and Prejudice   miss       26.
##  5 Great Expectations The War of the Worlds boat       25.
##  6 Great Expectations Pride and Prejudice   father     19.
##  7 Great Expectations The War of the Worlds water      19.
##  8 Great Expectations Pride and Prejudice   baby       18.
##  9 Great Expectations Pride and Prejudice   flopson    18.
## 10 Great Expectations Pride and Prejudice   family     16.
## # ... with 3,490 more rows
```
…
