…
words_by_time
```

Each row in this data frame corresponds to one person using one word in a given time bin. The `count` column tells us how many times that person used that word in that time bin, the `time_total` column tells us how many words that person used during that time bin, and the `word_total` column tells us how many times that person used that word over the whole year. This is the data set we can use for modeling.

We can use `nest()` from tidyr to make a data frame with a list column that contains little miniature data frames for each word. Let's do that now nad take a look at the resulting structure.
```{r 7.4-2}
nested_data <- words_by_time %>% 
  nest(-word,-person)
nested_data

## # A tibble: 112 x 3
##    person word    data             
##    <chr>  <chr>   <list>           
##  1 David  #rstats <tibble [12 × 4]>
##  2 David  bad     <tibble [9 × 4]> 
##  3 David  bit     <tibble [10 × 4]>
##  4 David  blog    <tibble [12 × 4]>
##  5 David  broom   <tibble [10 × 4]>
##  6 David  call    <tibble [9 × 4]> 
##  7 David  check   <tibble [12 × 4]>
##  8 David  code    <tibble [10 × 4]>
##  9 David  data    <tibble [12 × 4]>
## 10 David  day     <tibble [8 × 4]> 
## # ... with 102 more rows
```
…
